<?xml version="1.0" encoding="UTF-8" standalone="no"?>
<svg
   xmlns:dc="http://purl.org/dc/elements/1.1/"
   xmlns:cc="http://creativecommons.org/ns#"
   xmlns:rdf="http://www.w3.org/1999/02/22-rdf-syntax-ns#"
   xmlns:svg="http://www.w3.org/2000/svg"
   xmlns="http://www.w3.org/2000/svg"
   xmlns:sodipodi="http://sodipodi.sourceforge.net/DTD/sodipodi-0.dtd"
   xmlns:inkscape="http://www.inkscape.org/namespaces/inkscape"
   viewBox="0 0 448 512"
   version="1.1"
   id="svg1032"
   sodipodi:docname="menu_negro.svg"
   inkscape:version="1.0.1 (3bc2e813f5, 2020-09-07)">
  <metadata
     id="metadata1038">
    <rdf:RDF>
      <cc:Work
         rdf:about="">
        <dc:format>image/svg+xml</dc:format>
        <dc:type
           rdf:resource="http://purl.org/dc/dcmitype/StillImage" />
      </cc:Work>
    </rdf:RDF>
  </metadata>
  <defs
     id="defs1036" />
  <sodipodi:namedview
     pagecolor="#ffffff"
     bordercolor="#666666"
     borderopacity="1"
     objecttolerance="10"
     gridtolerance="10"
     guidetolerance="10"
     inkscape:pageopacity="0"
     inkscape:pageshadow="2"
     inkscape:window-width="1366"
     inkscape:window-height="740"
     id="namedview1034"
     showgrid="false"
     inkscape:zoom="0.74163348"
     inkscape:cx="105.66809"
     inkscape:cy="256"
     inkscape:window-x="0"
     inkscape:window-y="28"
     inkscape:window-maximized="1"
     inkscape:current-layer="svg1032" />
  <g
     id="g1085">
    <path
       id="path910"
       style="stroke-width:0.938631"
       d="m 39.174735,90.438339 c -8.2947,0 -15.01811,6.72339 -15.01811,15.018111 v 37.54527 c 0,8.29467 6.72341,15.01809 15.01811,15.01809 H 429.64553 c 8.29467,0 15.01812,-6.72342 15.01812,-15.01809 v -37.54527 c 0,-8.294721 -6.72345,-15.018111 -15.01812,-15.018111 z m 0,150.181081 c -8.2947,0 -15.01811,6.72342 -15.01811,15.0181 v 37.54526 c 0,8.29471 6.72341,15.01811 15.01811,15.01811 H 429.64553 c 8.29467,0 15.01812,-6.7234 15.01812,-15.01811 v -37.54526 c 0,-8.29468 -6.72345,-15.0181 -15.01812,-15.0181 z m 0,150.18108 c -8.2947,0 -15.01811,6.7234 -15.01811,15.01809 v 37.54528 c 0,8.29471 6.72341,15.01807 15.01811,15.01807 H 429.64553 c 8.29467,0 15.01812,-6.72336 15.01812,-15.01807 v -37.54528 c 0,-8.29469 -6.72345,-15.01809 -15.01812,-15.01809 z" />
    <g
       id="g1079"
       transform="translate(12)">
      <path
         id="path10"
         style="stroke-width:0.938631"
         d="m 6.354455,53.618061 c -8.2947,0 -15.01811,6.723388 -15.01811,15.018105 v 37.545274 c 0,8.29467 6.72341,15.0181 15.01811,15.0181 H 396.82523 c 8.29468,0 15.01813,-6.72343 15.01813,-15.0181 V 68.636166 c 0,-8.294717 -6.72345,-15.018105 -15.01813,-15.018105 z m 0,150.181079 c -8.2947,0 -15.01811,6.72342 -15.01811,15.0181 v 37.54526 c 0,8.29471 6.72341,15.01811 15.01811,15.01811 H 396.82523 c 8.29468,0 15.01813,-6.7234 15.01813,-15.01811 v -37.54526 c 0,-8.29468 -6.72345,-15.0181 -15.01813,-15.0181 z m 0,150.18107 c -8.2947,0 -15.01811,6.72342 -15.01811,15.0181 v 37.54527 c 0,8.29471 6.72341,15.01807 15.01811,15.01807 H 396.82523 c 8.29468,0 15.01813,-6.72336 15.01813,-15.01807 v -37.54527 c 0,-8.29468 -6.72345,-15.0181 -15.01813,-15.0181 z" />
      <path
         id="path882"
         style="fill:#ffffff;stroke-width:0.797043"
         d="m 14.163865,362.39037 c -7.96291,0 -14.41738,5.05001 -14.41738,11.28027 v 28.2006 c 0,6.23021 6.45447,11.28024 14.41738,11.28024 H 389.0158 c 7.9629,0 14.4174,-5.05003 14.4174,-11.28024 v -28.2006 c 0,-6.23026 -6.45451,-11.28027 -14.4174,-11.28027 z m 0,-150.18104 c -7.96291,0 -14.41738,5.05 -14.41738,11.28024 v 28.2006 c 0,6.23021 6.45447,11.28025 14.41738,11.28025 H 389.0158 c 7.9629,0 14.4174,-5.05004 14.4174,-11.28025 v -28.2006 c 0,-6.23024 -6.45451,-11.28024 -14.4174,-11.28024 z m 0,-150.181074 c -7.96291,0 -14.41738,5.050001 -14.41738,11.280241 V 101.5091 c 0,6.23021 6.45447,11.28024 14.41738,11.28024 H 389.0158 c 7.9629,0 14.4174,-5.05003 14.4174,-11.28024 V 73.308497 c 0,-6.23024 -6.45451,-11.280241 -14.4174,-11.280241 z" />
    </g>
  </g>
</svg>
